id,name,model_id:id,group_id:id,perm_read,perm_write,perm_create,perm_unlink
access_saldo_comprobante_periodo_check_book_user,saldo.comprobante.periodo.check.book.user,model_saldo_comprobante_periodo_check_book,account.group_account_user,1,1,1,1
access_saldo_comprobante_periodo_check_book_manager,saldo.comprobante.periodo.check.book.manager,model_saldo_comprobante_periodo_check_book,account.group_account_manager,1,1,1,1
access_saldo_comprobante_periodo_check_book_invoice,saldo.comprobante.periodo.check.book.invoice,model_saldo_comprobante_periodo_check_book,account.group_account_invoice,1,1,1,1