id,name,model_id:id,group_id:id,perm_read,perm_write,perm_create,perm_unlink
access_hr_employee_account_root,hr_employee_account_root,hr.model_hr_employee,employee_account_group,1,1,1,1
access_planilla_detalle_linea_nomina_wizard,access_planilla_detalle_linea_nomina_wizard_root,planilla.model_planilla_detalle_linea_nomina_wizard,employee_account_group,1,1,1,1
access_planilla_asiento_resumen_wizard,access_planilla_asiento_resumen_wizard_root,planilla.model_planilla_asiento_resumen_wizard,employee_account_group,1,1,1,1
access_planilla_detalle_asiento_distribuido_wizard,access_planilla_detalle_asiento_distribuido_wizard_root,planilla.model_planilla_detalle_asiento_distribuido_wizard,employee_account_group,1,1,1,1
access_planilla_asiento_distribuido_wizard,access_planilla_asiento_distribuido_wizard_root,planilla.model_planilla_asiento_distribuido_wizard,employee_account_group,1,1,1,1
access_hr_employee_it_root,hr_employee_it_root,hr.model_hr_employee,employee_it_group,1,1,1,1