id,name,model_id:id,group_id:id,perm_read,perm_write,perm_create,perm_unlink
access_account_auxiliar_banco_book_user,account.auxiliar.banco.book.user,model_account_auxiliar_banco_book,account.group_account_user,1,1,1,1
access_account_auxiliar_banco_book_manager,account.auxiliar.banco.book.manager,model_account_auxiliar_banco_book,account.group_account_manager,1,1,1,1
access_account_auxiliar_banco_book_invoice,account.auxiliar.banco.book.invoice,model_account_auxiliar_banco_book,account.group_account_invoice,1,1,1,1