id,name,model_id:id,group_id:id,perm_read,perm_write,perm_create,perm_unlink
access_account_ap_budget_it_user,account.ap.budget.it.user,model_account_ap_budget_it,account.group_account_user,1,1,1,1
access_account_ap_budget_it_manager,account.ap.budget.it.manager,model_account_ap_budget_it,account.group_account_manager,1,1,1,1
access_account_ap_budget_it_invoice,account.ap.budget.it.invoice,model_account_ap_budget_it,account.group_account_invoice,1,1,1,1
access_account_budget_it_user,account.budget.it.user,model_account_budget_it,account.group_account_user,1,1,1,1
access_account_budget_it_manager,account.budget.it.manager,model_account_budget_it,account.group_account_manager,1,1,1,1
access_account_budget_it_invoice,account.budget.it.invoice,model_account_budget_it,account.group_account_invoice,1,1,1,1
access_account_budget_it_line_user,account.budget.it.line.user,model_account_budget_it_line,account.group_account_user,1,1,1,1
access_account_budget_it_line_manager,account.budget.it.line.manager,model_account_budget_it_line,account.group_account_manager,1,1,1,1
access_account_budget_it_line_invoice,account.budget.it.line.invoice,model_account_budget_it_line,account.group_account_invoice,1,1,1,1